{"url":"MA/apis/CmaWrap/CmaWrap_Reference.html", "windows":true, "non_windows":false, "on_premise":true, "multi_tenant":false, "server_side":false, "client_side":true},
{"url":"MA/apis/EventGeneration/EventGeneration_Reference.htm", "windows":true, "non_windows":false, "on_premise":true, "multi_tenant":false, "server_side":false, "client_side":true},
{"url":"MA/apis/Script%20Engine/script-command-reference.html", "windows":true, "non_windows":true, "on_premise":true, "multi_tenant":true, "server_side":false, "client_side":true},
{"url":"MA/apis/template/template.html", "windows":false, "non_windows":false, "on_premise":false, "multi_tenant":false, "server_side":false, "client_side":true},
{"url":"MA/articles/devsetup/devsetup.html", "windows":true, "non_windows":true, "on_premise":true, "multi_tenant":false, "server_side":false, "client_side":true},
{"url":"MA/articles/Glossary/Glossary.html", "windows":false, "non_windows":false, "on_premise":false, "multi_tenant":false, "server_side":false, "client_side":true},
{"url":"MA/articles/mngmt_sdk/cma_wrap-api-reference.html", "windows":true, "non_windows":false, "on_premise":true, "multi_tenant":false, "server_side":false, "client_side":true},
{"url":"MA/articles/mngmt_sdk/event-database-reference.html", "windows":false, "non_windows":false, "on_premise":false, "multi_tenant":false, "server_side":true, "client_side":false},
{"url":"MA/articles/mngmt_sdk/event-generation-api-reference.html", "windows":true, "non_windows":false, "on_premise":true, "multi_tenant":false, "server_side":false, "client_side":true},
{"url":"MA/articles/mngmt_sdk/implement-management-features.html", "windows":true, "non_windows":true, "on_premise":true, "multi_tenant":false, "server_side":false, "client_side":true},
{"url":"MA/articles/mngmt_sdk/integrate-with-epo-management-features.html", "windows":true, "non_windows":false, "on_premise":true, "multi_tenant":false, "server_side":true, "client_side":true},
{"url":"MA/articles/mngmt_sdk/plugin-api-reference.html", "windows":true, "non_windows":false, "on_premise":true, "multi_tenant":false, "server_side":false, "client_side":true},
{"url":"MA/articles/mngmt_sdk/point-product-certification-test.html", "windows":true, "non_windows":false, "on_premise":true, "multi_tenant":false, "server_side":false, "client_side":true},
{"url":"MA/articles/mngmt_sdk/sample-point-product-functional-specification.html", "windows":true, "non_windows":false, "on_premise":true, "multi_tenant":false, "server_side":false, "client_side":true},
{"url":"MA/articles/mngmt_sdk/script-command-reference.html", "windows":true, "non_windows":true, "on_premise":true, "multi_tenant":true, "server_side":false, "client_side":true},
{"url":"MA/articles/mngmt_sdk/scripting-overview.html", "windows":true, "non_windows":true, "on_premise":true, "multi_tenant":true, "server_side":false, "client_side":true},
{"url":"MA/articles/mngmt_sdk/test-program-reference.html", "windows":true, "non_windows":false, "on_premise":true, "multi_tenant":false, "server_side":false, "client_side":true},
{"url":"MA/articles/mngmt_sdk/update-plugin-api-reference.html", "windows":true, "non_windows":false, "on_premise":true, "multi_tenant":false, "server_side":false, "client_side":true},
{"url":"MA/articles/Overview/DataChannel.html", "windows":true, "non_windows":true, "on_premise":true, "multi_tenant":false, "server_side":false, "client_side":true},
{"url":"MA/articles/Overview/DataChannel_external.html", "windows":true, "non_windows":false, "on_premise":true, "multi_tenant":false, "server_side":false, "client_side":true},
{"url":"MA/articles/Overview/lpc.html", "windows":true, "non_windows":true, "on_premise":true, "multi_tenant":false, "server_side":false, "client_side":true},
{"url":"MA/articles/Overview/Overview_MA.html", "windows":true, "non_windows":true, "on_premise":true, "multi_tenant":false, "server_side":false, "client_side":true},
{"url":"MA/articles/Overview/Scripting_Overview.htm", "windows":true, "non_windows":true, "on_premise":true, "multi_tenant":false, "server_side":false, "client_side":true},
{"url":"MA/samples/beacon/beacon.html", "windows":true, "non_windows":true, "on_premise":true, "multi_tenant":false, "server_side":false, "client_side":true},
{"url":"MA/tutorials/ManagementFeaturesImplementation/CreateADetectionScript.html", "windows":true, "non_windows":true, "on_premise":true, "multi_tenant":false, "server_side":false, "client_side":true},
{"url":"MA/tutorials/ManagementFeaturesImplementation/CreateAPluginPatchScript.html", "windows":true, "non_windows":true, "on_premise":true, "multi_tenant":false, "server_side":false, "client_side":true},
{"url":"MA/tutorials/ManagementFeaturesImplementation/CreateReportsOfProductEvents.html", "windows":true, "non_windows":false, "on_premise":true, "multi_tenant":false, "server_side":true, "client_side":false},
{"url":"MA/tutorials/ManagementFeaturesImplementation/HowTo.html", "windows":true, "non_windows":false, "on_premise":true, "multi_tenant":false, "server_side":false, "client_side":true},
{"url":"MA/tutorials/ManagementFeaturesImplementation/PackagingEventParserPluginFiles.html", "windows":true, "non_windows":false, "on_premise":true, "multi_tenant":false, "server_side":true, "client_side":false},
{"url":"MA/tutorials/ManagementFeaturesImplementation/PackagingForRemoteDeployment.html", "windows":true, "non_windows":false, "on_premise":true, "multi_tenant":false, "server_side":true, "client_side":true},
{"url":"MA/tutorials/ManagementFeaturesImplementation/WritingAnEventParserPlugin.html", "windows":true, "non_windows":false, "on_premise":true, "multi_tenant":false, "server_side":false, "client_side":true},
{"url":"MA/tutorials/ManagementFeaturesIntegration/AccessSitelist.html", "windows":false, "non_windows":true, "on_premise":true, "multi_tenant":false, "server_side":true, "client_side":false},
{"url":"MA/tutorials/ManagementFeaturesIntegration/AutomaticallyDeployOrUpdate.html", "windows":true, "non_windows":true, "on_premise":true, "multi_tenant":false, "server_side":false, "client_side":true},
{"url":"MA/tutorials/ManagementFeaturesIntegration/CryptoService.html", "windows":true, "non_windows":true, "on_premise":true, "multi_tenant":false, "server_side":false, "client_side":true},
{"url":"MA/tutorials/ManagementFeaturesIntegration/CryptoService_external.html", "windows":true, "non_windows":true, "on_premise":true, "multi_tenant":false, "server_side":false, "client_side":true},
{"url":"MA/tutorials/ManagementFeaturesIntegration/EnforcingSettings.html", "windows":true, "non_windows":true, "on_premise":true, "multi_tenant":false, "server_side":false, "client_side":true},
{"url":"MA/tutorials/ManagementFeaturesIntegration/EnforcingUserSettings.html", "windows":true, "non_windows":true, "on_premise":true, "multi_tenant":false, "server_side":false, "client_side":true},
{"url":"MA/tutorials/ManagementFeaturesIntegration/HowTo.html", "windows":true, "non_windows":true, "on_premise":true, "multi_tenant":false, "server_side":false, "client_side":true},
{"url":"MA/tutorials/ManagementFeaturesIntegration/InspectSettingsRemotely.html", "windows":true, "non_windows":true, "on_premise":true, "multi_tenant":false, "server_side":false, "client_side":true},
{"url":"MA/tutorials/ManagementFeaturesIntegration/LicenseInformation.html", "windows":true, "non_windows":true, "on_premise":true, "multi_tenant":false, "server_side":false, "client_side":true},
{"url":"MA/tutorials/ManagementFeaturesIntegration/MAInfo.html", "windows":true, "non_windows":true, "on_premise":true, "multi_tenant":false, "server_side":false, "client_side":true},
{"url":"MA/tutorials/ManagementFeaturesIntegration/Miscellaneous.htm", "windows":true, "non_windows":true, "on_premise":true, "multi_tenant":false, "server_side":false, "client_side":true},
{"url":"MA/tutorials/ManagementFeaturesIntegration/ScheduleTasks.html", "windows":true, "non_windows":false, "on_premise":true, "multi_tenant":false, "server_side":false, "client_side":true},
{"url":"MA/tutorials/ManagementFeaturesIntegration/ScheduleTasksRemotely.html", "windows":true, "non_windows":true, "on_premise":true, "multi_tenant":false, "server_side":false, "client_side":true},
{"url":"MA/tutorials/ManagementFeaturesIntegration/SignalingEvents.html", "windows":true, "non_windows":true, "on_premise":true, "multi_tenant":false, "server_side":false, "client_side":true},
{"url":"MA/tutorials/ManagementFeaturesIntegration/UpdateFiles.html", "windows":true, "non_windows":false, "on_premise":true, "multi_tenant":false, "server_side":false, "client_side":true},
{"url":"MA/doxygen/html/index.html", "windows":true, "non_windows":true, "on_premise":true, "multi_tenant":false, "server_side":false, "client_side":true},
{"url":"MA/articles/5.x/MA_GettingStarted.html", "windows":true, "non_windows":true, "on_premise":true, "multi_tenant":false, "server_side":true, "client_side":true},
{"url":"MA/articles/5.x/MA5_XOverview.html", "windows":true, "non_windows":true, "on_premise":true, "multi_tenant":false, "server_side":true, "client_side":true},
{"url":"MA/articles/5.x/DispatcherOverview.html", "windows":true, "non_windows":true, "on_premise":true, "multi_tenant":false, "server_side":true, "client_side":true},
{"url":"MA/articles/5.x/PropertyService.html", "windows":true, "non_windows":true, "on_premise":true, "multi_tenant":false, "server_side":true, "client_side":true},
{"url":"MA/articles/5.x/EventService.html", "windows":true, "non_windows":true, "on_premise":true, "multi_tenant":false, "server_side":true, "client_side":true},
{"url":"MA/articles/5.x/PolicyService.html", "windows":true, "non_windows":true, "on_premise":true, "multi_tenant":false, "server_side":true, "client_side":true},
{"url":"MA/articles/5.x/SchedulerService.html", "windows":true, "non_windows":true, "on_premise":true, "multi_tenant":false, "server_side":true, "client_side":true},
{"url":"MA/articles/5.x/UpdaterService.html", "windows":true, "non_windows":true, "on_premise":true, "multi_tenant":false, "server_side":true, "client_side":true},
{"url":"MA/articles/5.x/Task.html", "windows":true, "non_windows":true, "on_premise":true, "multi_tenant":false, "server_side":true, "client_side":true},
{"url":"MA/articles/5.x/DataChannelService.html", "windows":true, "non_windows":true, "on_premise":true, "multi_tenant":false, "server_side":true, "client_side":true},
{"url":"MA/articles/5.x/crypto.html", "windows":true, "non_windows":true, "on_premise":true, "multi_tenant":false, "server_side":true, "client_side":true},
{"url":"MA/articles/5.x/agentinfo.html", "windows":true, "non_windows":true, "on_premise":true, "multi_tenant":false, "server_side":true, "client_side":true},
{"url":"MA/articles/5.x/IntegratingWithMaClient.html", "windows":true, "non_windows":true, "on_premise":true, "multi_tenant":false, "server_side":true, "client_side":true},
{"url":"MA/articles/5.x/integrateProperty.html", "windows":true, "non_windows":true, "on_premise":true, "multi_tenant":false, "server_side":true, "client_side":true},
{"url":"MA/articles/5.x/integrateEvent.html", "windows":true, "non_windows":true, "on_premise":true, "multi_tenant":false, "server_side":true, "client_side":true},
{"url":"MA/articles/5.x/integrateUpdater.html", "windows":true, "non_windows":true, "on_premise":true, "multi_tenant":false, "server_side":true, "client_side":true},
{"url":"MA/articles/5.x/integratePolicy.html", "windows":true, "non_windows":true, "on_premise":true, "multi_tenant":false, "server_side":true, "client_side":true},
{"url":"MA/articles/5.x/integrateScheduler.html", "windows":true, "non_windows":true, "on_premise":true, "multi_tenant":false, "server_side":true, "client_side":true},
{"url":"MA/articles/5.x/integrateTask.html", "windows":true, "non_windows":true, "on_premise":true, "multi_tenant":false, "server_side":true, "client_side":true},
{"url":"MA/articles/5.x/integrateDataChannel.html", "windows":true, "non_windows":true, "on_premise":true, "multi_tenant":false, "server_side":true, "client_side":true},
{"url":"MA/articles/5.x/integrateCrypto.html", "windows":true, "non_windows":true, "on_premise":true, "multi_tenant":false, "server_side":true, "client_side":true},
{"url":"MA/articles/5.x/integrateAgentInfo.html", "windows":true, "non_windows":true, "on_premise":true, "multi_tenant":false, "server_side":true, "client_side":true},
{"url":"MA/articles/5.x/integrateSitelist.html", "windows":true, "non_windows":true, "on_premise":true, "multi_tenant":false, "server_side":true, "client_side":true},
{"url":"MA/articles/5.x/MessageBusOverview.html", "windows":true, "non_windows":true, "on_premise":true, "multi_tenant":false, "server_side":true, "client_side":true},
{"url":"MA/articles/5.x/sitelist.html", "windows":true, "non_windows":true, "on_premise":true, "multi_tenant":false, "server_side":true, "client_side":true},
{"url":"MA/articles/5.x/sdkoverview.html", "windows":true, "non_windows":true, "on_premise":true, "multi_tenant":false, "server_side":true, "client_side":true},
{"url":"MA/articles/5.x/devsetupwin.html", "windows":true, "non_windows":true, "on_premise":true, "multi_tenant":false, "server_side":true, "client_side":true},
{"url":"MA/articles/5.x/devsetupnwin.html", "windows":true, "non_windows":true, "on_premise":true, "multi_tenant":false, "server_side":true, "client_side":true},
{"url":"MA/articles/5.x/testsigningMcAfeeInternal.html", "windows":true, "non_windows":true, "on_premise":true, "multi_tenant":false, "server_side":true, "client_side":true},
{"url":"MA/articles/5.x/testsigningSIA.html", "windows":true, "non_windows":true, "on_premise":true, "multi_tenant":false, "server_side":true, "client_side":true},
